﻿Declare @CustomRegID nvarchar(7),@Operator nvarchar(7),@Market nvarchar(5),@Agency nvarchar(4),@Office nvarchar(7),@DateFormat nvarchar(4),@Seperator nvarchar(1),@Cur nvarchar(4000)
Select @CustomRegID=N'1192601',@Operator=N'EMERALD',@Market=N'BGMAR',@Agency=N'TEST',@Office=N'SOFIAOF',@DateFormat=N'Mdyy',@Seperator=N'/',@Cur=NULL

Declare @CalcTable TABLE (RefNo int, CatPackID int, ARecNo int, PRecNo int, HAPRecNo int, CalcSalePrice decimal(18,5), SaleChdG1 decimal(18,5), SaleChdG2 decimal(18,5), SaleChdG3 decimal(18,5), SaleChdG4 decimal(18,5), HotChdPrice decimal(18,5), DepFlight VarChar(10), RetFlight VarChar(10)) 
Insert Into @CalcTable (RefNo, CatPackID, ARecNo, PRecNo, HAPRecNo, CalcSalePrice, SaleChdG1, SaleChdG2, SaleChdG3, SaleChdG4, HotChdPrice, DepFlight, RetFlight) 
Values (1, 6055, 1, 41, 904714, 1000.00, 0.00000000000000000000, 0.00000000000000000000, 0.00000000000000000000, 0.00000000000000000000, 0.00, '          ', '          ') 
SET DATEFIRST 1 
if OBJECT_ID('TempDB.dbo.#Temp1') is not null Drop Table dbo.#Temp1
                        if OBJECT_ID('TempDB.dbo.#Temp2') is not null Drop Table dbo.#Temp2
                        if OBJECT_ID('TempDB.dbo.#Temp3') is not null Drop Table dbo.#Temp3
                        if OBJECT_ID('TempDB.dbo.#Temp4') is not null Drop Table dbo.#Temp4
                        if OBJECT_ID('TempDB.dbo.#Location') is not null Drop Table dbo.#Location
                        if OBJECT_ID('TempDB.dbo.#EBPas') is not null Drop Table dbo.#EBPas
                        if OBJECT_ID('TempDB.dbo.#EBPas1') is not null Drop Table dbo.#EBPas1
                        if OBJECT_ID('TempDB.dbo.#AgencyEB') is not null Drop Table dbo.#AgencyEB
                        if OBJECT_ID('TempDB.dbo.#AgencyEB1') is not null Drop Table dbo.#AgencyEB1
                        if OBJECT_ID('TempDB.dbo.#CatalogPack') is not null Drop Table dbo.#CatalogPack
                        if OBJECT_ID('TempDB.dbo.#AgencyCP') is not null Drop Table dbo.#AgencyCP
                        if OBJECT_ID('TempDB.dbo.#AvailableFlights') is not null Drop Table dbo.#AvailableFlights
                       
Declare @EBCalcType smallint
--F.B. 08.03.2016 Last EB işi parametreye bağlandı.
Select @EBCalcType = isnull(EBCalcType,0) From ParamPrice (NOLOCK) Where Market=''

Declare @GetEBLastRecID SmallInt, @GetEBPLastRecID SmallInt

Set @GetEBLastRecID = @EBCalcType
Set @GetEBPLastRecID = @EBCalcType
Declare @SaleBegDate DateTime
                        Set @SaleBegDate = GetDate() Select * Into #CatalogPack 
                        From CatalogPack (NOLOCK) CP
                        Where   CP.Ready = 'Y' 
       	                    And CP.EndDate > GetDate()-1
       	                    And CP.WebPub = 'Y' 
       	                    And CP.WebPubDate < GetDate() 
       	                    And dbo.DateOnly(GETDATE()) BetWeen CP.SaleBegDate And CP.SaleEndDate    And CP.PackType<>'T' 
Select Distinct RecID 
                        Into #AgencyCP 
                        From 
                        ( 
            	            Select CP.RecID 
            	            From #CatalogPack CP (NOLOCK) 
            	            Where 
            		            Not Exists(Select RecID From CatPackAgency Where CatPackID=CP.RecID) or
                                Exists(Select CA.RecID from CatPackAgency CA (NOLOCK)
                                       Left Join GrpAgencyDet AG (NOLOCK) on AG.Groups=CA.AgencyGrp and AG.Agency=@Agency --And AG.GrpType='P'
                                       Where CA.CatPackID=CP.RecID and (AG.Agency=@Agency or CA.Agency=@Agency)) 
            	            --Union All 
            	            --Select CP.RecID 
            	            --From #CatalogPack CP (NOLOCK) 
            	            --Where 
            		        --    Exists(Select RecID From CatPackAgency Where CatPackID=CP.RecID and Agency=@Agency) 
                        ) ACP Select RecID, Name=isnull(dbo.FindLocalName(NameLID, @Market), Name), Village, Town, City, Country 
                        Into #Location 
                        From Location (NOLOCK) Select UKey=Cast(T.CatPackID AS VarChar)+'-'+Cast(PP.RecNo AS VarChar)+'-'+Cast(PA.RecNo AS VarChar)+'-'+Cast(HAP.RecID AS VarChar), T.RefNo, 
            	            ARecNo=PA.RecNo, PA.Hotel, PA.Room, PA.Accom, PA.Board, 
            	            PRecNo=PP.RecNo, PP.CheckIn, PP.Night, PP.HotNight, PA.Adl, PP.ChdG1Age1, PP.ChdG1Age2, PP.ChdG2Age1, PP.ChdG2Age2, 
            	            PP.ChdG3Age1, PP.ChdG3Age2, PP.ChdG4Age1, PP.ChdG4Age2, PP.HotelChdRecNo,                             
            	            CatPackID=CP.RecID, CP.BegDate, CP.EndDate, CP.HolPack, CP.Operator, CP.Market, CP.EBValid, CP.PasEBValid, CP.FlightClass, 
            	            CP.DepCity, CP.ArrCity, CPName=isnull(dbo.FindLocalName(CP.NameLID, @Market), CP.Name), CP.SaleCur, PP.NetCur, PLSpoExists=IsNull(CP.PLSpoExists,0), CPDescription=CP.Description, CP.SaleSPONo, CP.SaleEndDate, 
            	            H.ChdCalcSale, HotLocation=H.Location, HotCat=H.Category,
            	            HAPRecID=HAP.RecID, HAdult=HAP.Adult, HChdAgeG1=HAP.ChdAgeG1, HChdAgeG2=HAP.ChdAgeG2, HChdAgeG3=HAP.ChdAgeG3, HChdAgeG4=HAP.ChdAgeG4,
                            T.CalcSalePrice, T.SaleChdG1, T.SaleChdG2, T.SaleChdG3, T.SaleChdG4, T.HotChdPrice, T.DepFlight, T.RetFlight,
                            PP.SaleAdl, PP.SaleExtBed1, PP.SaleExtBed2,DepServiceType=isnull(CP.DepServiceType,''),RetServiceType=isnull(CP.RetServiceType,''),
                            AccomFullName=
            	                case when HAP.Adult>0 then Str(HAP.Adult,1)+' '+Cast(IsNull(PRM.PLAdlCap,'Adl') as varchar(100)) else '' end+ 
            	                case when HAP.ChdAgeG1>0 and PP.ChdG1Age2>0 then '+'+Convert(VarChar(5),HAP.ChdAgeG1)+' '+Cast(IsNull(PRM.PLChdCap,'Chd') as varchar(100))+'('+Convert(VarChar(5),PP.ChdG1Age1)+'-'+Convert(VarChar(5),PP.ChdG1Age2)+')' else '' end+
            	                case when HAP.ChdAgeG2>0 and PP.ChdG2Age2>0 then '+'+Convert(VarChar(5),HAP.ChdAgeG2)+' '+Cast(IsNull(PRM.PLChdCap,'Chd') as varchar(100))+'('+Convert(VarChar(5),PP.ChdG2Age1)+'-'+Convert(VarChar(5),PP.ChdG2Age2)+')' else '' end+
            	                case when HAP.ChdAgeG3>0 and PP.ChdG3Age2>0 then '+'+Convert(VarChar(5),HAP.ChdAgeG3)+' '+Cast(IsNull(PRM.PLChdCap,'Chd') as varchar(100))+'('+Convert(VarChar(5),PP.ChdG3Age1)+'-'+Convert(VarChar(5),PP.ChdG3Age2)+')' else '' end+
            	                case when HAP.ChdAgeG4>0 and PP.ChdG4Age2>0 then '+'+Convert(VarChar(5),HAP.ChdAgeG4)+' '+Cast(IsNull(PRM.PLChdCap,'Chd') as varchar(100))+'('+Convert(VarChar(5),PP.ChdG4Age1)+'-'+Convert(VarChar(5),PP.ChdG4Age2)+')' else '' end,     
                            InsurPrice=Cast(0.0 as dec(18,2)),
                            CompExtSerPrice=Cast(0.0 as dec(18,2)), 
                            GrandSalePrice=Cast(0.0 as dec(18,2)),

                           SpoPer=Cast(0.0 as dec(18,2)),
                                SpoAdlVal=Cast(0.0 as dec(18,2)),
                                SpoExtB1Val=Cast(0.0 as dec(18,2)),
                                SpoExtB2Val=Cast(0.0 as dec(18,2)),
                                SpoChdGrp1Val=Cast(0.0 as dec(18,2)),
                                SpoChdGrp2Val=Cast(0.0 as dec(18,2)),
                                SpoChdGrp3Val=Cast(0.0 as dec(18,2)),
                                SpoChdGrp4Val=Cast(0.0 as dec(18,2)),
                                SpoFlightTot=Cast(0.0 as dec(18,2)),
                                SpoHotelTot=Cast(0.0 as dec(18,2)),
                                PasEBValidFlight = 1, PasEBValidHotel = 1,
                                EBFlightValid = 1, EBHotelValid = 1,
                                FlightValidDate=Cast(73048 AS DateTime),
                                HotelValidDate=Cast(73048 AS DateTime),
                                DepFlightForSpo='          ',
                                TransportType=Cast(0 As smallint),CP.PEBResource 
Into #Temp1 
                        From CatPriceA PA (NOLOCK) 
                        Join CatPriceP PP (NOLOCK) on PP.CatPackID=PA.CatPackID and PP.PriceAID=PA.RecNo 
                        Join #CatalogPack CP (NOLOCK) on CP.RecID=PA.CatPAckID
                        join Hotel H (NOLOCK) on H.Code=PA.Hotel 
                        join HotelRoom HR (NOLOCK) on HR.Hotel=PA.Hotel and HR.Code=PA.Room 
                        join HotelAccom HA (NOLOCK) on HA.Hotel=PA.Hotel and HA.Room=PA.Room and HA.Code=PA.Accom 
                        join HotelBoard HB (NOLOCK) on HB.Hotel=PA.Hotel and HB.Code=PA.Board join HotelAccomPax HAP  (NOLOCK) on HAP.Hotel=PA.Hotel and HAP.Room=PA.Room and HAP.Accom=PA.Accom and IsNull(HAP.VisiblePL,'Y')='Y'
                        Join @CalcTable T On T.CatPackID = CP.RecID And T.ARecNo = PA.RecNo And T.PRecNo = PP.RecNo And T.HAPRecNo = HAP.RecID
                        join HotelCat HC (NOLOCK) on HC.Code=H.Category 
                        Left Join ParamPrice PRM (NOLOCK) on PRM.Market=CP.Market Select P.*,             	              
            	              0 AS FreeAllot, EBPerc = Cast(0 AS decimal(18, 5)), EBValidDate = Cast(73048 AS DateTime), 0 AS AgencyEB 
                            Into #Temp2 
                            From #Temp1 P --Eğer AgencyEB Yazılacak İse 
                            Select Distinct Hotel, EBValid, HolPack, CheckIn, Night, Operator, Market 
                            Into #AgencyEB1 
                            From #Temp2 

                            Select *, AgencyEB=Case When EBValid='Y' Then ( 
                			            Select Top 1 EBPer  From AgencyComEB EB (NOLOCK) 
                			            Left Join GrpAgencyDet AG (NOLOCK) on AG.Groups=EB.AgencyGrp and AG.GrpType='P' 
                			            Left Join GrpHolPackDet PG (NOLOCK) on PG.Groups=EB.HolPackGrp and PG.GrpType='P' 
                			            Where	OwnerOperator=x.Operator 
                				            And OwnerMarket=x.Market 
                				            And Operator=@Operator 
                				            And Market=@Market 
                				            And ((EB.Agency=(Select Case WHEN isnull(MainOffice, '')='' Then Code Else MainOffice End From Agency Where Code=@Agency) 
                				               Or AG.Agency=(Select Case WHEN isnull(MainOffice, '')='' Then Code Else MainOffice End From Agency Where Code=@Agency)) Or (EB.Agency='' And AG.Agency is Null)) 
                				            And ((EB.HolPackGrp='' And (EB.HolPack=x.HolPack Or EB.HolPack='')) Or PG.HolPack=x.HolPack) 
                				            And dbo.DateOnly(GETDATE()) Between SaleBegDate And SaleEndDate 
                				            And X.CheckIn Between ResBegDate And ResEndDate 
                			            Order By EB.Agency Desc, AgencyGrp Desc, EB.HolPack Desc, HolPackGrp Desc, SaleBegDate Desc, ResBegDate Desc 
                		            ) Else 0 End 
                            INTO #AgencyEB 
                            From #AgencyEB1 X Update x  
                            Set AgencyEB=Case When y.AgencyEB is null then 0 Else y.AgencyEB End  
                            From #Temp2 x ,#AgencyEB y  
                            where	x.Hotel=y.Hotel  
                	            And x.EBValid=y.EBValid  
                	            And x.Holpack=y.Holpack  
                	            And x.CheckIn=y.CheckIn  
                	            And x.Night=y.Night Select X.* 
                        Into #Temp3 
                        From ( 
                            Select R.*, 
                                PEB_Amount=Cast(0.0 as dec(18,2)),
                                PasEBPer=IsNull(PEB.PasEBPer,0),
                                PEB_AdlVal=IsNull(PEB.AdlVal,0),
                                PEB_EBedVal=IsNull(PEB.EBedVal,0),
                                PEB_ChdGrp1Val=IsNull(PEB.ChdGrp1Val,0),
                                PEB_ChdGrp2Val=IsNull(PEB.ChdGrp2Val,0),
                                PEB_ChdGrp3Val=IsNull(PEB.ChdGrp3Val,0),
                                PEB_ChdGrp4Val=IsNull(PEB.ChdGrp4Val,0),

                                HKB_Exists=Case When HKB.PriceType is null then 0 else 1 end,  
                                HKB_PriceType=HKB.PriceType,  
                                HKB_CalcType=HKB.CalcType, 
                                HKB_AdlPrice=HKB.AdlPrice, 
                                HKB_SupPer=HKB.SupPer, 
                                HKB_EBOpt=HKB.EBOpt, 
                                HKB_Cur=HKB.Cur,  
                                HKB_Amount=Cast(0 as dec(18,2)), 
                                SPWithEB=R.CalcSalePrice,

                                PasEBPer2=Cast(0.0 as dec(5,2)),
                                PEB_RecID=PEB.EBRecID,PEB_ResBegDate=PEB.ResBegDate,PEB_CinAccom=PEB.CinAccom,
                                PEB_ResEndDate=case when PEB.CinAccom=0 then R.CheckIn+R.Night-1
                                                    when PEB.ResEndDate<R.CheckIn+R.Night-1 then PEB.ResEndDate 
                                                    else R.CheckIn+R.Night-1 
                                               end,

                                SpoDesc=Cast('' as varChar(255)),
                                EBAmount=Case When R.PasEBValid='Y' And (PEB.PasEBPer is not null or PEB.AdlVal is not null) Then
					                                dbo.ufn_GetEBAmountPL(R.CatPackID,R.ARecNo,R.PRecNo,R.HapRecID,R.Adl,R.ChdG1Age1,R.ChdG1Age2,R.ChdG2Age1,R.ChdG2Age2,R.ChdG3Age1,R.ChdG3Age2,R.ChdG4Age1,R.ChdG4Age2,
										                                  R.HotelChdRecNo,R.ChdCalcSale,R.HAdult,R.HChdAgeG1,R.HChdAgeG2,R.HChdAgeG3,R.HChdAgeG4,0,@CustomRegID,R.HotChdPrice)
				                              Else 0 End,
                                PEB_SaleEndDate=PEB.SaleEndDate

                            From #Temp2 R 
                            -- 2010-02-11 KickBack 
                            OUTER APPLY  
                            ( 
                                  Select Top 1 PriceType,CalcType,AdlPrice,SupPer,EBOpt,Cur 
                                  From HotelFeed (NOLOCK) HF 
                                  Where Hotel=R.Hotel and Status=1 and ForSale=1 and dbo.DateOnly(@SaleBegDate) between SaleBegDate and SaleEndDate 
                                  and R.CheckIn between BegDate and EndDate 
                                  and R.Night between IsNull(MinDay,0) and IsNull(MaxDay,999) 
                                  and SubString(AccomDays,DATEPART(dw,R.CheckIn),1)=1 
                                  and (Room='' or Room=R.Room) 
                                  and (Board='' or Board=R.Board) 
                                  Order by Room Desc, Board Desc,CrtDate Desc 
                            ) HKB  
                            OUTER APPLY
                            ( 
                           Select Top 1 PasEBPer,AdlVal,EBedVal=IsNull(EBedVal,AdlVal),ChdGrp1Val,ChdGrp2Val,ChdGrp3Val,ChdGrp4Val,
                                    EBRecID=EBP.RecID,ResBegDate,ResEndDate,CinAccom,EBP.SaleEndDate,
									LastEBRecID = EB.RecID * @GetEBLastRecID, LastEBPRecID = EBP.RecID * @GetEBPLastRecID	                            
	                            From PasEB EB (NOLOCK)
	                            Join PasEBPer EBP (NOLOCK) on EBP.PasEBID=EB.RecID
	                            Join PasEBHot EBH (NOLOCK) on EBH.PasEBID=EB.RecID and EBH.Hotel=R.Hotel and dbo.IsEmpty(EBH.Room,R.Room)=R.Room and dbo.IsEmpty(EBH.Board,R.Board)=R.Board
	                            Left Join GrpHolPackDet PG (NOLOCK) on PG.Groups = EB.HolPackGrp and PG.GrpType='P'
	                            Where R.PasEBValid='Y' and OwnerOperator=R.Operator and OwnerMarket=R.Market and Operator=@Operator and Market=@Market and R.PasEBValid='Y' and EB.SaleType=0		                              
		                              and ( (EB.HolPack=R.HolPack or PG.HolPack=R.HolPack) or (EB.HolPack='' and PG.HolPack is Null) )
		                              and dbo.DateOnly(@SaleBegDate) between SaleBegDate and SaleEndDate and R.CheckIn between ResBegDate and ResEndDate
		                              and (R.Night between IsNull(MinDay,0) and IsNull(MaxDay,999))
		                              and SubString(DoW,DATEPART(dw,R.CheckIn),1)=1
                                      and DateDIFF(day,dbo.DateOnly(GetDate()),R.CheckIn) between IsNull(EBP.RemFromDay,0) and IsNull(EBP.RemToDay,999)
	                            Order by LastEBRecID desc,EBH.Hotel Desc,EBH.Room Desc,EBH.Board Desc,EB.HolPack Desc,HolPackGrp Desc,EB.CrtDate Desc,LastEBPRecID Desc,SaleBegDate Desc,ResBegDate Desc, EBP.RecID Desc

                            ) PEB
                            -- 2010-02-11 KickBack 
                        ) X 
                        
                        if (Select Count(*) from #Temp3 where PlSpoExists=1) > 0
                        Begin                          
                       
                        Declare @DepFlight varchar(10),
	                            @RetFlight varchar(10),
	                            @DepClass varchar(5),
	                            @RetClass varchar(5),
	                            @DepFree int,
	                            @RetFree int,
	                            @HolPack varChar(10),
	                            @CheckIn dateTime, 
	                            @Night int,
	                            @HAdult int,
								@DepServiceType varChar(10),
								@RetServiceType varChar(10)

                        Select Distinct X.HolPack,X.CheckIn,X.Night,X.HAdult,X.DepServiceType,X.RetServiceType 
                        Into #AvailableFlights 
                        From #Temp2 X

                        Declare RCursor CURSOR LOCAL FAST_FORWARD FOR
                           Select HolPack, CheckIn, Night, HAdult, DepServiceType, RetServiceType  From #AvailableFlights
                           Open RCursor
                           Fetch Next FROM RCursor INTO @HolPack, @CheckIn, @Night, @HAdult, @DepServiceType, @RetServiceType 
                           While @@FETCH_STATUS = 0
                           begin  
							 if (@DepServiceType=@RetServiceType And @DepServiceType='FLIGHT')
							 Begin
							   Select @RetFlight = '', @DepFlight = '', @DepFree = 0, @RetFree = 0
							   if isnull(@DepFlight, '') = '' or isnull(@RetFlight, '') = ''
								   exec dbo.usp_GetAvailableFlightInPackage @HolPack, @CheckIn, @Night, @HAdult, @DepFlight output, @RetFlight output, @DepClass output, @RetClass output, @DepFree output, @RetFree output

							   if isnull(@RetFlight,'') = '' or @RetFlight = '%'
								   Select Top 1 @RetFlight = NextFlight From FlightDay (nolock) where FlightNo = @DepFlight and FlyDate = @CheckIn

							   update #Temp3 
							   Set DepFlight=@DepFlight,RetFlight=@RetFlight,FlightClass=@DepClass    --Case When isnull(@DepClass,'')='' Then FlightClass Else @DepClass End
							   where HolPack=@HolPack and CheckIn=@CheckIn and Night=@Night and HAdult=@HAdult 
								 and isnull(@DepClass,'')<>''
							 End
							 Else
							 Begin
							   
							 End
                           Fetch Next FROM RCursor INTO @HolPack, @CheckIn, @Night, @HAdult, @DepServiceType, @RetServiceType 
                        end
                        close RCursor
                        deallocate RCursor                        
                       Update #Temp3
                            Set
                              SPOPer=Y.SPOPer,
	                          SpoAdlVal=Y.AdlVal, 
                              SpoExtB1Val=Y.ExtB1Val, 
                              SpoExtB2Val=Y.ExtB2Val,
	                          SpoChdGrp1Val=Y.ChdGrp1Val, 
                              SpoChdGrp2Val=Y.ChdGrp2Val, 
                              SpoChdGrp3Val=Y.ChdGrp3Val, 
                              SpoChdGrp4Val=Y.ChdGrp4Val,
	                          SpoFlightTot=Y.FlightTot, 
                              SpoHotelTot=Y.HotelTot,
	                          PasEBValidFlight=Y.PEBValidForFlight,
	                          PasEBValidHotel=Y.PEBValidForHotel,
                              FlightValidDate=Case When Y.FlightValidDate is null Then Cast(73048 AS DateTime) Else Y.FlightValidDate End,
                              HotelValidDate=Case When Y.HotelValidDate is null Then Cast(73048 AS DateTime) Else Y.HotelValidDate End,
	                          EBFlightValid=isnull((Select Top 1 IsNull(PayPasEB,0) From CatPackPlan (NOLOCK) where CatPackID = X.CatPackID and Service = 'FLIGHT'),0),
	                          EBHotelValid=isnull((Select Top 1 IsNull(PayPasEB,0) From CatPackPlan (NOLOCK) where CatPackID = X.CatPackID and Service = 'HOTEL'),0),
                              SpoDesc=isnull(SD.Description,'')							  
                          from #Temp3 X
                          outer apply
                          (
                            select * from dbo.PLSpoVals(0,X.CatPackID,@SaleBegDate,X.CheckIn,X.Night,X.Hotel,X.Room,X.Accom,X.Board,X.Adl,X.HAdult,X.HChdAgeG1,X.HChdAgeG2,X.HChdAgeG3,X.HChdAgeG4,X.HotLocation,X.HotCat,0,X.DepFlight,@Agency,@CustomRegID)
                          ) Y
                          outer apply
                          (
                            Select CPS.Description From CatPriceSPO CPS (NOLOCK) 
                            Left Join CatPriceSPOSer CPSS (NOLOCK) ON CPS.RecID=CPSS.SpoID 
                            Left Join CatPriceSPOVal CPSV (NOLOCK) ON CPS.RecID=CPSV.SpoID And CPSS.ValID=CPSV.RecID
                            Where  CPS.RecID=Y.FlgSpoID
                              And (isnull(CPS.PriceListNo,0)=0 Or CPS.PriceListNo=X.CatPackID)
                              And (isnull(CPS.HolPack,'')='' Or CPS.HolPack=X.HolPack)
                              And (isnull(CPSS.Service,'')='' Or (CPSS.Service=X.Hotel Or CPSS.ST=1))
                              And X.CheckIn between isnull(CPSV.CheckIn1,0) And isnull(CPSV.CheckIn2,GetDate()+999)
                              And X.HotNight between isnull(CPSV.MinNight,0) And isnull(CPSV.MaxNight, 999)
                              And (isnull(CPSV.Room,'')='' Or X.Room=CPSV.Room)
                              And (isnull(CPSV.Accom,'')='' Or X.Accom=CPSV.Accom)
                              And (isnull(CPSV.Board,'')='' Or X.Board=CPSV.Board)
                          ) SD
                          Where UKey = X.UKey and PlSpoExists=1

                          --if @CustomRegID = '0970301'
                          --    Update #Temp3 
                          --      Set PlSpoExists=0
                          --    Where IsNull(SpoPer,0)=0 and IsNull(SpoAdlVal,0)=0 and IsNull(SpoExtB1Val,0)=0 and IsNull(SpoExtB2Val,0)=0 and IsNull(SpoChdGrp1Val,0)=0 and 
                          --          IsNull(SpoChdGrp2Val,0)=0 and IsNull(SpoChdGrp3Val,0)=0  and IsNull(SpoChdGrp4Val,0)=0                          
                          
                         Update #Temp3
                          Set SaleAdl=SaleAdl+IsNull(SpoAdlVal,0),
                              SaleExtBed1=Case when SaleExtBed1<>0 or IsNull(SpoExtB1Val,0) > 0 then SaleExtBed1+IsNull(SpoExtB1Val,0) else 0 end,
                              SaleExtBed2=Case when SaleExtBed2<>0 or IsNull(SpoExtB2Val,0) > 0 then SaleExtBed2+IsNull(SpoExtB2Val,0) else 0 end,
                              SaleChdG1=Case when SaleChdG1<>0 or IsNull(SpoChdGrp1Val,0) > 0 then SaleChdG1+IsNull(SpoChdGrp1Val,0) else 0 end,
                              SaleChdG2=Case when SaleChdG2<>0 or IsNull(SpoChdGrp2Val,0) > 0 then SaleChdG2+IsNull(SpoChdGrp2Val,0) else 0 end,
                              SaleChdG3=Case when SaleChdG3<>0 or IsNull(SpoChdGrp3Val,0) > 0 then SaleChdG3+IsNull(SpoChdGrp3Val,0) else 0 end,
                              SaleChdG4=Case when SaleChdG4<>0 or IsNull(SpoChdGrp4Val,0) > 0 then SaleChdG4+IsNull(SpoChdGrp4Val,0) else 0 end
                          Where PlSpoExists=1 and (isnull(SpoPer, 0)=0 or SpoHotelTot<>0)

                         Update #Temp3
                          Set SaleAdl=SaleAdl * (1 + IsNull(SpoPer,0)/100),
                              SaleExtBed1=Case when SaleExtBed1<>0 then SaleExtBed1 * (1 + IsNull(SpoPer,0)/100) else 0 end,
                              SaleExtBed2=Case when SaleExtBed2<>0 then SaleExtBed2 * (1 + IsNull(SpoPer,0)/100) else 0 end,
                              SaleChdG1=Case when SaleChdG1<>0 then SaleChdG1 * (1 + IsNull(SpoPer,0)/100) else 0 end,
                              SaleChdG2=Case when SaleChdG2<>0 then SaleChdG2 * (1 + IsNull(SpoPer,0)/100) else 0 end,
                              SaleChdG3=Case when SaleChdG3<>0 then SaleChdG3 * (1 + IsNull(SpoPer,0)/100) else 0 end,
                              SaleChdG4=Case when SaleChdG4<>0 then SaleChdG4 * (1 + IsNull(SpoPer,0)/100) else 0 end,
                              SpoFlightTot = case 
                                               when SpoPer = 0 then SpoFlightTot
                                               else (Case When HAdult>Adl then Adl else HAdult end * SaleAdl * IsNull(SpoPer,0)/100+
                                                     Case when HAdult-Adl>=1 then SaleExtBed1 * IsNull(SpoPer,0)/100 else 0 end+
                                                     Case when HAdult-Adl>=2 then SaleExtBed2 * IsNull(SpoPer,0)/100 else 0 end+
                                                     Case when HChdAgeG1>0 then SaleChdG1 * HChdAgeG1 * IsNull(SpoPer,0)/100 else 0 end+
                                                     Case when HChdAgeG2>0 then SaleChdG2 * HChdAgeG2 * IsNull(SpoPer,0)/100 else 0 end+
                                                     Case when HChdAgeG3>0 then SaleChdG3 * HChdAgeG3 * IsNull(SpoPer,0)/100 else 0 end+
                                                     Case when HChdAgeG4>0 then SaleChdG4 * HChdAgeG4 * IsNull(SpoPer,0)/100 else 0 end)
                                             end
                          Where PlSpoExists=1 and isnull(SpoPer, 0) <> 0

                          
                          
                          Update #Temp3
                          Set
                            SPWithEB=--SaleAdl*Adl+
                               (Case When HAdult>Adl then Adl else HAdult end * SaleAdl)+
                               Case when HAdult-Adl>=1 then SaleExtBed1 else 0 end+
                               Case when HAdult-Adl>=2 then SaleExtBed2 else 0 end+
                               Case when HChdAgeG1>0 then SaleChdG1 * HChdAgeG1 else 0 end+
                               Case when HChdAgeG2>0 then SaleChdG2 * HChdAgeG2 else 0 end+
                               Case when HChdAgeG3>0 then SaleChdG3 * HChdAgeG3 else 0 end+
                               Case when HChdAgeG4>0 then SaleChdG4 * HChdAgeG4 else 0 end,
                              
                              PlSpoExists=Case When IsNull(SpoPer,0)<>0 or
                                                    IsNull(SpoAdlVal,0)<>0 or
                                                    (HAdult-Adl>=1 and IsNull(SpoExtB1Val,0)<>0 ) or
                                                    (HAdult-Adl>=2 and IsNull(SpoExtB2Val,0)<>0 ) or
                                                    (HChdAgeG1>0 and IsNull(SpoChdGrp1Val,0)<>0 ) or
                                                    (HChdAgeG2>0 and IsNull(SpoChdGrp2Val,0)<>0 ) or
                                                    (HChdAgeG3>0 and IsNull(SpoChdGrp3Val,0)<>0 ) or
                                                    (HChdAgeG4>0 and IsNull(SpoChdGrp4Val,0)<>0 ) then 1 else 0 end,                            
                             
                              EBAmount=Case 
											When PEBResource = 1 then 
											  case 
												when SpoPer = 0 then (EBAmount+(SpoHotelTot * isnull(EBHotelValid,0))) * PasEBValidHotel * PasEBValidFlight
												  			    else ((EBAmount + (SpoHotelTot * isnull(EBHotelValid,0)))) * PasEBValidHotel * PasEBValidFlight
												end
											Else
											  case 
												when SpoPer = 0 then (EBAmount + (SpoFlightTot * isnull(EBFlightValid,0)) + (SpoHotelTot * isnull(EBHotelValid,0))) * (PasEBValidFlight * PasEBValidHotel)
												                else ((EBAmount + (EBAmount * SpoPer * isnull(EBFlightValid,0) / 100)) + (SpoHotelTot * isnull(EBHotelValid,0))) * (PasEBValidFlight * PasEBValidHotel)
												end
											End,
                              PasEBPer = Case 
										   When PEBResource = 1 Then PasEBPer * PasEBValidHotel
																Else PasEBPer * PasEBValidFlight * PasEBValidHotel
										   End,
                              PEB_AdlVal=Case 
										   When PEBResource = 1 Then PEB_AdlVal * PasEBValidHotel
																Else PEB_AdlVal * PasEBValidFlight * PasEBValidHotel
										   End                          
                              From #Temp3 x
                              Where PlSpoExists=1
                        End Update #Temp3 Set HKB_Exists=0 Where HKB_Exists=1 and (PasEBPer>0 or PEB_AdlVal<>0) and HKB_EBOpt=1

                        Update #Temp3 Set HKB_Amount=dbo.Calc_HotKickBack(0,HKB_PriceType,HKB_CalcType,HKB_AdlPrice*dbo.ufn_Exchange(dbo.DateOnly(@SaleBegDate),HKB_Cur,SaleCur,1,1,Market),
                                                                        HKB_SupPer,HKB_Cur,Night,Adl,
                                                                        Case When HAdult-Adl>=1 then 1 else 0 end,Case When HAdult-Adl>=2 then 1 else 0 end,CatPackID,PRecNo,HotChdPrice,SaleCur,'', SpoHotelTot)
                        Where HKB_Exists=1

                        Update #Temp3 Set SPWithEB=SPWithEB-HKB_Amount, EBAmount = case when IsNull(EBAmount,0) > 0 then EBAmount - HKB_Amount else 0 end Where HKB_Exists=1                        

                        --PasEbPer2 - 2.period ********************
                        Update #Temp3
                        Set PasEbPer2=IsNUll(PEB2.PasEBPer,0)
                        From #Temp3 V
                        OUTER APPLY
                        (  Select Top 1 PasEBPer=IsNull(PasEBPer,0),AdlVal,EBedVal=IsNull(EBedVal,AdlVal),ChdGrp1Val,ChdGrp2Val,ChdGrp3Val,ChdGrp4Val,EBRecID=EBP.RecID,ResBegDate,ResEndDate,CinAccom,
		                           LastEBRecID=EB.RecID*@GetEBLastRecID,LastEBPRecID=EBP.RecID*@GetEBPLastRecID
	                        From PasEB EB (NOLOCK)
	                        Join PasEBPer EBP (NOLOCK) on EBP.PasEBID=EB.RecID
	                        Join PasEBHot EBH (NOLOCK) on EBH.PasEBID=EB.RecID and EBH.Hotel=V.Hotel and (EBH.Room='' or EBH.Room=V.Room)and (EBH.Board='' or EBH.Board=V.Board)
	                        Left Join GrpHolPackDet PG (NOLOCK) on PG.Groups = EB.HolPackGrp and PG.GrpType='P'
	                        Where EBP.RecID<>V.PEB_RecID and V.PasEBPer<>0 and
	                        V.PasEBValid='Y' and OwnerOperator=V.Operator and OwnerMarket=V.Market and Operator=@Operator and Market=@Market and V.PasEBValid='Y' and EB.SaleType=0 and 
		                         ( (EB.HolPack=V.HolPack or PG.HolPack=V.HolPack) or (EB.HolPack='' and PG.HolPack is Null) )
		                          and dbo.DateOnly(@SaleBegDate) between SaleBegDate and SaleEndDate 
		                          and V.PEB_ResEndDate+1 between ResBegDate and ResEndDate and CinAccom=1
		                          and (V.Night between IsNull(MinDay,0) and IsNull(MaxDay,999))
		                          and SubString(DoW,DATEPART(dw,V.CheckIn),1)=1	        
                                  and DateDIFF(day,dbo.DateOnly(GetDate()),V.CheckIn) between IsNull(EBP.RemFromDay,0) and IsNull(EBP.RemToDay,999)
	                        Order by LastEBRecID desc, EBH.Hotel Desc,EBH.Room Desc,EBH.Board Desc,EB.HolPack Desc,HolPackGrp Desc,EB.CrtDate Desc, LastEBPRecID Desc, SaleBegDate Desc, ResBegDate Desc, EBP.RecID Desc
                           ) PEB2
                        Where V.PEB_CinAccom=1 and PEB_ResEndDate<V.CheckIn+Night-1
                        --PasEbPer2 - 2.period ***************

                        --Update #Temp3 Set SPWithEB=SPWithEB-(IsNull(EBAmount,0)*PasEBPer / 100) where IsNull(EBAmount,0) > 0 and PasEBPer<>0

                        Update #Temp3
                        Set SPWithEB=SPWithEB-(IsNull(EBAmount,0)*PasEBPer* ((DATEDIFF(day,CheckIn,PEB_ResEndDate)+1)/ cast(Night as dec(18,6))) / 100)
                                             -(IsNull(EBAmount,0)*PasEBPer2* ((DATEDIFF(day,PEB_ResEndDate,CheckIn+Night-1))/ cast(Night as dec(18,6))) / 100)


                        Update #Temp3
                        Set PEB_Amount=  Case When HAdult>0 and PEB_AdlVal<>0 then (Case When HAdult>Adl then Adl else HAdult end) * PEB_AdlVal else 0 end+
                                         Case When HAdult-Adl>=1 then PEB_EBedVal else 0 end+
                                         Case When HAdult-Adl>=2 then PEB_EBedVal else 0 end+
                                         Case When HChdAgeG1>0 and PEB_ChdGrp1Val<>0 then HChdAgeG1*PEB_ChdGrp1Val else 0 end+
                                         Case When HChdAgeG2>0 and PEB_ChdGrp2Val<>0 then HChdAgeG2*PEB_ChdGrp2Val else 0 end+
                                         Case When HChdAgeG3>0 and PEB_ChdGrp3Val<>0 then HChdAgeG3*PEB_ChdGrp3Val else 0 end+
                                         Case When HChdAgeG4>0 and PEB_ChdGrp4Val<>0 then HChdAgeG4*PEB_ChdGrp4Val else 0 end,
                             SPWithEB=SPWithEB-
		                        (
		                          Case When HAdult>0 and PEB_AdlVal<>0 then Case When HAdult>Adl then Adl else HAdult end * PEB_AdlVal else 0 end+
		                          Case When HAdult-Adl>=1 then PEB_EBedVal else 0 end+
		                          Case When HAdult-Adl>=2 then PEB_EBedVal else 0 end+
		                          Case When HChdAgeG1>0 and PEB_ChdGrp1Val<>0 then HChdAgeG1*PEB_ChdGrp1Val else 0 end+
		                          Case When HChdAgeG2>0 and PEB_ChdGrp2Val<>0 then HChdAgeG2*PEB_ChdGrp2Val else 0 end+
		                          Case When HChdAgeG3>0 and PEB_ChdGrp3Val<>0 then HChdAgeG3*PEB_ChdGrp3Val else 0 end+
		                          Case When HChdAgeG4>0 and PEB_ChdGrp4Val<>0 then HChdAgeG4*PEB_ChdGrp4Val else 0 end
		                        )
                        Where PEB_AdlVal<>0

                        Update #Temp3
                        Set 
                            PEB_EBedVal=0,
                            PEB_ChdGrp1Val=0,
                            PEB_ChdGrp2Val=0,
                            PEB_ChdGrp3Val=0,
                            PEB_ChdGrp4Val=0
                        Where PEB_AdlVal=0   Update #Temp3 Set TransportType = Case when HP.Service = 'FLIGHT' Then 1 when HP.Service = 'TRANSPORT' Then 2 Else 0 End 
  From HolPackPlan HP 
  Where HP.HolPack = #Temp3.HolPack and HP.StepNo = 1 
  Update #Temp3 Set TransportType = 2 
  From HolPackPlan HP 
  Where #Temp3.TransportType = 0 And (Select Count(HolPack) From HolPackPlan (Nolock) Where HolPack = #Temp3.HolPack And Service = 'TRANSPORT') Between 1 And 2 
  And (Select Count(HolPack) From HolPackPlan (Nolock) Where HolPack = #Temp3.HolPack And Service = 'FLIGHT') = 0 

                        Update #Temp3 Set PEB_Amount=PEB_Amount*-1
                        Where PEB_Amount<>0

                        --Set @hasPLAllotment=case when Exists(Select * From #Temp3 Where PLFreeAmount<1000) then 1 else 0 end

                        Update #Temp3 
                        Set 
                            SPWithEB=dbo.ufn_Exchange(dbo.DateOnly(@SaleBegDate), SaleCur, isnull(@Cur,SaleCur),SPWithEB,1,Market),
                            CalcSalePrice=dbo.ufn_Exchange(dbo.DateOnly(@SaleBegDate), SaleCur, isnull(@Cur,SaleCur),CalcSalePrice,1,Market)

--Select dbo.ufn_CheckTransportAlllotForSearch('2016-06-16',3,7,'EMERALD','310516')
Select dbo.ufn_GetFreeFlightSeat('EMERALD','          ','Y','2016-06-23',7)
 Select R.*, PLSPO_Amount=IsNull(SpoFlightTot,0)+IsNull(SpoHotelTot,0), 
     FreeRoom=dbo.ufn_HotelFreeAmount(R.Market, @Office, @Agency, R.Hotel, R.Room, R.Accom, -1, R.CheckIn, R.Night, 11), 
	 DepSeat=Case When TransportType=2 Then dbo.ufn_CheckTransportAlllotForSearch(R.CheckIn,R.DepCity,R.ArrCity,R.Operator,R.HolPack) 
				  When TransportType=1 Then 
				       Case When R.DepServiceType=R.RetServiceType Then
						  dbo.ufn_Get_DepRet_FlightSeatWeb(R.Operator,R.Market,R.DepFlight,R.CheckIn,R.Night,R.FlightClass,null,R.HolPack,0,null)  
					   Else
					      dbo.ufn_GetFreeFlightSeat(R.Operator,R.DepFlight,R.FlightClass,R.CheckIn,R.Night)  
					   End
				  Else null  
				  End, 
	 RetSeat=Case When TransportType=2 Then dbo.ufn_CheckTransportAlllotForSearch(R.CheckIn+R.Night,R.ArrCity,R.DepCity,R.Operator,R.HolPack) 
				  When TransportType=1 Then 
					   Case When R.DepServiceType=R.RetServiceType Then
						  dbo.ufn_Get_DepRet_FlightSeatWeb(R.Operator,R.Market,R.DepFlight,R.CheckIn,R.Night,R.FlightClass,null,R.HolPack,1,null)  
					   Else
					      dbo.ufn_GetFreeFlightSeat(R.Operator,R.RetFlight,R.FlightClass,R.CheckIn+R.Night,R.Night)
					   End
				  Else null  
				  End, 
       Cur=@Cur,  
       CurrentCur=isnull(@Cur, R.SaleCur), 
       Description = R.CPDescription, OprText = (Case When isnull(H.OprText, '') = '' then O.NameS else H.OprText end) 
Into #Temp4 
From #Temp3 R 
Join HolPack H (NOLOCK) ON H.Code = R.HolPack 
Join Operator O (NOLOCK) ON O.Code = R.Operator 

Select * From #Temp4 
Order By SPWithEB
                      






/****** Object:  UserDefinedFunction [dbo].[ufn_GetFreeFlightSeat]    Script Date: 03/06/2016 16:29:29 ******/
SET ANSI_NULLS ON
GO
SET QUOTED_IDENTIFIER ON
GO
-- =============================================
/*
Created By : M.K. 2016-05-12 14:00 F.B den alindi. Bus + Flght icin gerekli
*/
-- =============================================
CREATE FUNCTION [dbo].[ufn_GetFreeFlightSeat]
(
	-- Add the parameters for the function here
	@Operator varchar(10),
	@FlightNo varchar(10),
	@Class char(1),
	@FlyDate datetime,
	@Night int
)
RETURNS int
AS
BEGIN

	-- Declare the return variable here
	DECLARE @Free int,
			@isStopSale TinyInt,
			@Release TinyInt

	-- Add the T-SQL statements to compute the return value here
    Set @Free = 0
--    Select @Free=Sum(Free) from AllotFlight (NOLOCK) Where FlightNo=@FlightNo and FlyDate=@FlyDate and Operator=@Operator and SClass = @Class and Buyer='' and BlockType <> 'O' 
    Select @Free=Sum(Free) 
    from AllotFlight A (NOLOCK)
    Join FlightDay FD (Nolock) On FD.FlightNo = A.FlightNo And FD.FlyDate = A.FlyDate
    Where A.FlightNo=@FlightNo and A.FlyDate=@FlyDate and 
          --A.Operator=@Operator And
          --20.02.2014 F.B. Flight Share nedeni ile üstteki alttaki şekilde revize edildi.
          --(A.Operator=@Operator Or A.Operator In (Select Operator From FlightDayOp (Nolock) Where FlightDayID = FD.RecID)) And 
         (A.Operator=@Operator or A.Operator in (Select Operator From FlightDayOp (Nolock) Where FlightDayID = FD.RecID) Or exists(Select Operator From FlightDayOp (Nolock) Where FlightDayID = FD.RecID And Operator = @Operator)) AND
          A.SClass = @Class and A.Buyer='' and A.BlockType <> 'O'

    if @@ROWCOUNT=0 Set @Free=0 /*Allotment not Found*/
    if @Free < 0 Set @Free = 0                               
                               
    if @Free > 0
    begin
      Select @isStopSale = dbo.ufn_FlightStopSale(@FlightNo, @FlyDate, @Class, null, 0, 0, @Night)  
      if @isStopSale > 0
       Set @Free = 0

      if @Free > 0 and @Release > 0 and @FlyDate >= dbo.DateOnly(GetDate())
        if DateDiff(day,dbo.DateOnly(GetDate()), @FlyDate) < @Release+1
          Set @Free = 0 /*Release*/
    end

	-- Return the result of the function
	RETURN (@Free)
END