{"strMode":"PROD","strVersion":"v0.01","strTerminalID":"30691297","strProvUserID":"PROVAUT","strProvisionPassword":"123qweASD","strUserID":"GARANTI","strMerchantID":"7000679","strIPAddress":"::1","strEmailAddress":"","strOrderID":"021216145518","strNumber":"0","strExpireDate":"","strCVV2":null,"strAmount":"141135","strType":"sales","strCurrencyCode":"949","strCardholderPresentCode":"13","strMotoInd":"N","strInstallmentCount":"0","strHostAddress":"https://sanalposprovtest.garanti.com.tr/VPServlet","SecurityData":"480B307B1156E14E3B58AB49A9F2BC08DEE631E6","HashData":"93FE61B6730D0C69462B032E8D9AB97B55AF79B4"}
{"responseFromServer":"<GVPSResponse><Mode></Mode><Terminal><ProvUserID>PROVAUT</ProvUserID><UserID>GARANTI</UserID><ID>30691297</ID><MerchantID>7000679</MerchantID></Terminal><Customer><IPAddress>::1</IPAddress><EmailAddress></EmailAddress></Customer><Order><OrderID>021216145518</OrderID><GroupID></GroupID></Order><Transaction><Response><Source>GVPS</Source><Code>92</Code><ReasonCode>0651</ReasonCode><Message>Declined</Message><ErrorMsg>Kullanıcı şifresi hatalı</ErrorMsg><SysErrMsg>ErrorId: 0651</SysErrMsg></Response><RetrefNum></RetrefNum><AuthCode></AuthCode><BatchNum></BatchNum><SequenceNum></SequenceNum><ProvDate>20161202 14:55:26</ProvDate><CardNumberMasked></CardNumberMasked><CardHolderName></CardHolderName><CardType></CardType><HashData>5B2688E51F216A996980B86ED5FE734259F5CAAD</HashData><HostMsgList></HostMsgList><RewardInqResult><RewardList></RewardList><ChequeList></ChequeList></RewardInqResult></Transaction></GVPSResponse>"}
{"Result":false,"ErrorMessage":"Kullanıcı şifresi hatalı"}
