{"strMode":"PROD","strVersion":"v0.01","strTerminalID":"30691297","strProvUserID":"PROVAUT","strProvisionPassword":"123qweASD","strUserID":"72MJWAXN","strMerchantID":"7000679","strIPAddress":"192.168.1.1","strEmailAddress":"","strOrderID":"131216114311VT003164","strNumber":"","strExpireDate":"","strCVV2":null,"strAmount":"126950","strType":"sales","strCurrencyCode":"949","strCardholderPresentCode":"13","strMotoInd":"N","strInstallmentCount":"","strHostAddress":"https://sanalposprovtest.garanti.com.tr/VPServlet","SecurityData":"480B307B1156E14E3B58AB49A9F2BC08DEE631E6","HashData":"B93B787ECAA9975A5EE400BAD596977DE024F5A7"}
{"responseFromServer":"<GVPSResponse><Mode></Mode><Terminal><ProvUserID>PROVAUT</ProvUserID><UserID>72MJWAXN</UserID><ID>30691297</ID><MerchantID>7000679</MerchantID></Terminal><Customer><IPAddress>192.168.1.1</IPAddress><EmailAddress></EmailAddress></Customer><Order><OrderID>131216114311VT003164</OrderID><GroupID></GroupID></Order><Transaction><Response><Source>HOST</Source><Code>00</Code><ReasonCode>00</ReasonCode><Message>Approved</Message><ErrorMsg></ErrorMsg><SysErrMsg></SysErrMsg></Response><RetrefNum>634810674486</RetrefNum><AuthCode>304919</AuthCode><BatchNum>001465</BatchNum><SequenceNum>000798</SequenceNum><ProvDate>20161213 11:43:12</ProvDate><CardNumberMasked>428220******8015</CardNumberMasked><CardHolderName>HA*** YIL***</CardHolderName><CardType>FLEXI</CardType><HashData>A35912CDD556747BD7E341EDAD2F0951D875D393</HashData><HostMsgList></HostMsgList><RewardInqResult><RewardList></RewardList><ChequeList></ChequeList></RewardInqResult></Transaction></GVPSResponse>"}
{"Result":true,"Code":"00"}
