{"strMode":"PROD","strVersion":"v0.01","strTerminalID":"10068142","strProvUserID":"PROVAUT","strProvisionPassword":"72MJWAXN","strUserID":"1676282","strMerchantID":"10068142","strIPAddress":"::1","strEmailAddress":"","strOrderID":"281116170103","strNumber":"4012000300001003","strExpireDate":"0119","strCVV2":"003","strAmount":"141135","strType":"sales","strCurrencyCode":"949","strCardholderPresentCode":"0","strMotoInd":"N","strInstallmentCount":"0","strHostAddress":"https://sanalposprov.garanti.com.tr/VPServlet","SecurityData":"1AB7ACA09F8E3A99196EBACAFD87C69C3070D6EC","HashData":"4D520B22AA0BF2BD2C0A8C3347CBCCBDB528B59B"}
{"responseFromServer":"<GVPSResponse><Mode></Mode><Terminal><ProvUserID>PROVAUT</ProvUserID><UserID>1676282</UserID><ID>10068142</ID><MerchantID>10068142</MerchantID></Terminal><Customer><IPAddress>::1</IPAddress><EmailAddress></EmailAddress></Customer><Order><OrderID>281116170103</OrderID><GroupID></GroupID></Order><Transaction><Response><Source>GVPS</Source><Code>92</Code><ReasonCode>0651</ReasonCode><Message>Declined</Message><ErrorMsg>Kullanıcı şifresi hatalı</ErrorMsg><SysErrMsg>ErrorId: 0651</SysErrMsg></Response><RetrefNum></RetrefNum><AuthCode></AuthCode><BatchNum></BatchNum><SequenceNum></SequenceNum><ProvDate>20161128 17:01:03</ProvDate><CardNumberMasked>401200******1003</CardNumberMasked><CardHolderName></CardHolderName><CardType></CardType><HashData>FE22ABC7830DEAFF05CFC74B2333419B1814CCCE</HashData><HostMsgList></HostMsgList><RewardInqResult><RewardList></RewardList><ChequeList></ChequeList></RewardInqResult></Transaction></GVPSResponse>"}
{"Result":false,"ErrorMessage":"Kullanıcı şifresi hatalı"}
