{"strMode":"PROD","strVersion":"v0.01","strTerminalID":"10068142","strProvUserID":"PROVAUT","strProvisionPassword":"72MJWAXN","strUserID":"1676282","strMerchantID":"1676282","strIPAddress":"::1","strEmailAddress":"","strOrderID":"301116115631","strNumber":"4938460198449725","strExpireDate":"0818","strCVV2":"970","strAmount":"141135","strType":"sales","strCurrencyCode":"949","strCardholderPresentCode":"0","strMotoInd":"N","strInstallmentCount":"0","strHostAddress":"https://sanalposprov.garanti.com.tr/servlet/gt3dengine","SecurityData":"1AB7ACA09F8E3A99196EBACAFD87C69C3070D6EC","HashData":"2020C75A8B4850BC15DE4CCF7AF9FA70B559DC06"}
{"responseFromServer":"<html>\r\n<head>\r\n<meta http-equiv=\"Content-Type\" content=\"text/html; charset=UTF-8\">\r\n</head>\r\n<body>\r\n<P>Donus icin isyeri URL bulunamiyor, Karti basan banka sisteminden gelen hatali PARes mesaji veya sistem hatasi\r\n</body>\r\n</html>\r\n"}
{"Result":false,"SystemError":"Bankayla bağlantı kurulamadı ! Lütfen daha sonra tekrar deneyin.","ErrorCode":null,"ErrorMessage":"Bankayla bağlantı kurulamadı ! Lütfen daha sonra tekrar deneyin."}
